geospatial
…
data view

countypres

## # A tibble: 18,948 x 12
## # Groups:   year, FIPS [9,468]
##     year state state_po county FIPS  office candidate party candidatevotes
##    <int> <chr> <chr>    <chr>  <chr> <chr>  <chr>     <chr>          <int>
##  1  2008 Alab~ AL       Autau~ 01001 Presi~ Barack O~ demo~           6093
##  2  2008 Alab~ AL       Autau~ 01001 Presi~ John McC~ repu~          17403
##  3  2008 Alab~ AL       Baldw~ 01003 Presi~ Barack O~ demo~          19386
##  4  2008 Alab~ AL       Baldw~ 01003 Presi~ John McC~ repu~          61271
##  5  2008 Alab~ AL       Barbo~ 01005 Presi~ Barack O~ demo~           5697
##  6  2008 Alab~ AL       Barbo~ 01005 Presi~ John McC~ repu~           5866
##  7  2008 Alab~ AL       Bibb   01007 Presi~ Barack O~ demo~           2299
##  8  2008 Alab~ AL       Bibb   01007 Presi~ John McC~ repu~           6262
##  9  2008 Alab~ AL       Blount 01009 Presi~ Barack O~ demo~           3522
## 10  2008 Alab~ AL       Blount 01009 Presi~ John McC~ repu~          20389
## # ... with 18,938 more rows, and 3 more variables: totalvotes <int>,
## #   version <int>, vote_proportion <dbl>

unemployment

## # A tibble: 9,825 x 7
##    FIPS  Stabr year  Civilian_labor_force  Employed Unemployed Unemployment_rate
##    <chr> <chr> <chr>                <dbl>     <dbl>      <dbl>             <dbl>
##  1 00000 US    2008             153761298 144860522    8900776              5.79
##  2 00000 US    2012             155119209 142600412   12518797              8.07
##  3 00000 US    2016             158626135 150902618    7723517              4.87
##  4 01000 AL    2008               2176489   2053477     123012              5.7 
##  5 01000 AL    2012               2176337   2003290     173047              8   
##  6 01000 AL    2016               2182558   2055251     127307              5.8 
##  7 01001 AL    2008                 24687     23420       1267              5.1 
##  8 01001 AL    2012                 25740     23961       1779              6.9 
##  9 01001 AL    2016                 26031     24709       1322              5.1 
## 10 01003 AL    2008                 83223     79372       3851              4.6 
## # ... with 9,815 more rows
…
