networks
…
# select rows
data=readxl::read_xls('data/State_to_State_Migrations_Table_2018.xls', skip=4)

Extract the data in the form of a data frame with 3 columns: source, target and count; the last column will contain the numbers of people who migrated from the source state to the target state in 2018

# Set the target column
data = dplyr::rename(data, 'target'='Current residence in...1')
# remove no need columns
data = select(data,-contains('Current residence in') )
data = select(data,-seq(3,119,2) )
data = select(data,-c(2:5))
# view data
data

## # A tibble: 81 x 56
##    target ...10 `Different stat~ ...15 ...17 ...19 ...21 `Different stat~ ...26
##    <chr>  <chr> <chr>            <chr> <chr> <chr> <chr> <chr>            <chr>
##  1 <NA>   Alab~ Alaska           Ariz~ Arka~ Cali~ Colo~ Connecticut      Dela~
##  2 <NA>   Esti~ Estimate         Esti~ Esti~ Esti~ Esti~ Estimate         Esti~
##  3 <NA>   <NA>  <NA>             <NA>  <NA>  <NA>  <NA>  <NA>             <NA> 
##  4 Unite~ 98194 39246            1795~ 69724 6911~ 2034~ 114235           33395
##  5 <NA>   <NA>  <NA>             <NA>  <NA>  <NA>  <NA>  <NA>             <NA> 
##  6 Alaba~ N/A   419              1915  1051  2659  1672  747              826  
##  7 Alaska 518   N/A              910   722   3455  1847  0                0    
##  8 Arizo~ 2801  2743             N/A   1487  68516 11517 503              49   
##  9 Arkan~ 438   413              602   N/A   3728  3255  159              126  
## 10 Calif~ 4591  2155             33670 2573  N/A   18755 6366             1143 
## # ... with 71 more rows, and 47 more variables: ...28 <chr>, ...30 <chr>,
## #   ...32 <chr>, `Different state of residence 1 year ago
## #   (continued)...35` <chr>, ...37 <chr>, ...39 <chr>, ...41 <chr>,
## #   ...43 <chr>, `Different state of residence 1 year ago
## #   (continued)...46` <chr>, ...48 <chr>, ...50 <chr>, ...52 <chr>,
## #   ...54 <chr>, `Different state of residence 1 year ago
## #   (continued)...57` <chr>, ...59 <chr>, ...61 <chr>, ...63 <chr>,
## #   ...65 <chr>, `Different state of residence 1 year ago
## #   (continued)...68` <chr>, ...70 <chr>, ...72 <chr>, ...74 <chr>,
…
